<svg width="291" height="413" viewBox="0 0 291 413" fill="none" xmlns="http://www.w3.org/2000/svg">
<g opacity="0.05">
<path d="M279.102 223.923C276.349 231.278 272.813 238.29 269.477 245.397C262.122 261.216 253.311 276.341 243.156 290.583C232.032 306.279 219.072 320.636 204.543 333.36C193.892 342.631 182.338 350.848 170.048 357.892C150.026 369.459 127.998 377.279 105.079 380.955C97.261 382.193 89.4428 382.783 81.6247 383.381C78.041 383.615 74.4454 383.615 70.8617 383.381C65.1024 383.056 59.3777 382.433 53.6097 382.245C49.0491 382.091 44.4798 382.176 39.9106 381.92C31.7536 381.476 23.6401 380.835 15.5875 379.75C-1.37569 377.498 -18.0849 373.677 -34.3183 368.339C-50.0428 363.23 -65.1705 356.493 -79.4464 348.24C-80.1414 347.83 -80.8276 347.215 -81.7745 347.608C-79.3387 350.38 -76.749 353.018 -74.0171 355.509C-46.6487 381.347 -12.6676 399.404 24.3094 407.759C61.2864 416.115 99.8755 414.455 135.969 402.956C172.063 391.458 204.31 370.551 229.28 342.462C254.249 314.372 271.005 280.151 277.765 243.441C279.136 236.448 280.041 229.375 280.475 222.266C279.502 222.386 279.345 223.257 279.102 223.923Z" fill="#FBFEFF"/>
<path d="M-87.2385 73.8107C-84.7367 72.7173 -82.4173 71.2482 -79.7591 70.4623C-61.456 65.1921 -43.2745 59.452 -25.093 53.8486C-5.60841 47.8694 13.9543 42.1294 33.7603 37.2691C54.4696 32.1441 75.3441 27.9586 96.6008 25.7207C108.354 24.4906 120.107 23.4571 131.939 23.3802C138.616 23.3403 145.302 23.3403 151.997 23.3802C156.14 23.3802 160.293 23.141 164.436 23.7133C165.479 23.8585 166.703 24.1063 167.546 23.0215C166.286 22.4064 165.044 21.7744 163.785 21.1679C135.225 7.30614 103.814 0.0652771 71.9649 0.00144264C60.2972 -0.0418586 48.6468 0.889691 37.1394 2.78605C-1.62856 9.04856 -37.8186 25.9222 -67.2849 51.474C-75.4328 58.4107 -82.9467 66.0364 -89.7403 74.2634C-88.8195 74.8442 -88.0377 74.1951 -87.2385 73.8107Z" fill="#FBFEFF"/>
<path d="M39.5543 380.4C45.9478 380.724 52.3761 380.332 58.7522 380.827C69.2 381.749 79.7046 381.878 90.1724 381.211C108.073 379.86 125.665 375.863 142.354 369.355C168.649 359.191 191.582 343.892 211.745 324.545C232.042 304.975 248.963 282.284 261.841 257.365C269.286 243.091 276.444 228.673 281.213 213.255C281.144 209.112 281.126 204.969 281.005 200.835C280.1 163.463 268.762 127.054 248.229 95.5923C229.248 66.1745 204.048 43.1887 173.305 26.0283C172.954 25.8074 172.614 25.5679 172.289 25.3108C153.291 25.2254 134.319 24.2601 115.303 25.5585C101.345 26.4999 87.4431 28.1278 73.6501 30.4358C51.2555 34.16 29.3039 39.7805 7.44785 45.811C-18.5605 53.0288 -44.2214 61.4851 -70.1168 69.0616C-78.8036 71.6241 -87.1256 74.6992 -94.7092 79.5765C-95.9427 82.139 -97.9581 84.2147 -99.6086 86.5124C-113.033 105.025 -123.253 125.591 -129.856 147.381C-134.543 162.692 -137.362 178.497 -138.256 194.463C-140.715 239 -129.648 280.051 -105.62 317.729C-101.002 324.85 -95.9391 331.682 -90.4613 338.187C-90.0704 338.656 -89.5319 339.041 -89.5927 339.784C-89.4051 339.987 -89.2018 340.175 -88.9846 340.348C-70.9985 352.123 -51.4021 361.327 -30.7829 367.681C-7.9933 374.887 15.6488 379.162 39.5543 380.4Z" fill="#FBFEFF"/>
<path d="M288.988 123.738C286.66 106.278 282.16 89.4509 273.803 73.7683C264.326 56.0014 251 42.1638 232.159 33.8527C218.512 27.8307 204.048 25.2682 189.272 24.0553C182.027 23.4574 174.791 23.2865 167.555 23.073C159.667 23.0047 151.805 23.073 143.927 22.8594C123.947 22.3213 104.045 23.9015 84.2741 26.652C67.1016 29.1385 50.077 32.5287 33.2738 36.8081C7.51735 43.1973 -17.8829 50.7653 -43.1181 58.8971C-58.6936 63.9196 -74.9206 67.1484 -89.7664 74.2722L-93.5712 76.5016C-112.996 87.4968 -128.376 104.265 -137.5 124.395C-147.789 146.941 -154.332 170.964 -156.881 195.548C-158.775 212.57 -158.263 229.769 -155.361 246.653C-149.28 281.077 -131.68 308.931 -104.716 331.336C-97.4669 337.238 -89.8354 342.671 -81.87 347.6C-81.2967 347.899 -80.7234 348.146 -80.1761 348.454C-59.5449 360.532 -37.4196 368.954 -14.1563 374.669C-0.574875 377.959 13.2248 380.309 27.1409 381.698C39.5544 382.963 52.02 382.629 64.4334 383.518C84.5415 384.868 104.737 382.846 124.155 377.539C154.629 369.356 181.306 354.237 204.882 333.762C229.266 312.579 248.394 287.312 263.353 258.971C269.704 247.029 275.417 234.769 280.466 222.241C281.665 217.902 283.576 213.793 284.453 209.369C286.896 197.445 288.66 185.397 289.735 173.28C291.133 156.726 291.186 140.197 288.988 123.738ZM287.181 178.576C286.13 188.766 284.471 198.879 282.525 208.941C282.168 210.416 281.731 211.87 281.213 213.298C276.444 228.716 269.286 243.134 261.841 257.407C248.959 282.312 232.039 304.988 211.745 324.546C191.582 343.893 168.649 359.191 142.354 369.356C125.665 375.863 108.073 379.86 90.1725 381.211C79.7046 381.878 69.2 381.75 58.7523 380.827C52.3761 380.332 45.9479 380.725 39.5544 380.4C15.6396 379.161 -8.01135 374.883 -30.8089 367.673C-51.4281 361.318 -71.0245 352.115 -89.0106 340.339C-89.2278 340.167 -89.4311 339.979 -89.6187 339.775C-110.788 325.468 -128.058 307.71 -140.002 285.159C-148.863 268.29 -153.597 250.275 -155.1 231.364C-157.845 196.855 -151.269 163.832 -138.334 131.818C-129.648 110.276 -115.922 92.8164 -95.934 80.3283C-95.5084 80.0721 -95.0653 79.8585 -94.6484 79.6108C-87.0821 74.7335 -78.7775 71.6328 -70.0994 69.0703C-44.204 61.4938 -18.5431 53.0374 7.46524 45.8197C29.3213 39.755 51.2729 34.1346 73.6675 30.4445C87.4604 28.1336 101.362 26.5029 115.321 25.5586C134.336 24.2603 153.308 25.2255 172.306 25.3109C191.765 25.5074 210.876 27.3353 229.118 34.7581C246.822 41.9759 259.982 54.165 269.66 70.2491C278.346 84.7701 283.159 100.564 285.982 117.032C289.466 137.456 289.275 157.99 287.181 178.533V178.576Z" fill="#FBFEFF"/>
<path d="M127.352 180.762C126.873 180.656 126.401 180.525 125.936 180.369C122.062 179.233 121.072 178.011 120.846 174.031C120.776 172.784 120.846 171.537 120.802 170.29C120.733 163.157 120.985 156.025 120.394 148.893C119.934 143.247 117.597 138.788 111.924 136.934C104.653 134.517 97.7648 135.277 91.8056 140.488C90.6242 141.521 89.5123 142.632 88.3309 143.742C83.8398 133.406 67.7518 132.074 57.7359 144.246C57.5795 141.88 57.3884 139.77 57.319 137.66C57.319 136.422 56.8933 135.952 55.5816 136.148C50.3695 136.832 45.4701 138.497 40.397 139.565C39.6673 139.719 39.5283 140.172 39.4501 140.735C39.3112 141.504 39.8584 141.589 40.4231 141.812C42.3782 142.379 44.2566 143.176 46.0174 144.186C46.9729 144.793 47.7982 145.45 47.7547 146.749C47.7113 156.034 47.7548 165.318 47.6853 174.595C47.7701 175.716 47.446 176.831 46.7711 177.739C46.0962 178.646 45.1145 179.288 44.002 179.549C42.8554 179.882 41.7435 180.352 40.5794 180.583C39.1722 180.856 39.6499 181.872 39.5631 182.692C39.4502 183.82 40.2841 183.632 40.9616 183.632C49.1273 183.632 57.2929 183.632 65.4585 183.632C66.4488 183.632 66.7528 183.376 66.831 182.376C66.9439 180.95 66.1013 180.864 65.0936 180.668C59.5949 179.575 57.9096 177.61 57.6056 172.083C57.6056 171.81 57.6056 171.528 57.6056 171.229C57.6056 164.094 57.6056 156.959 57.6056 149.824C57.6056 149.217 57.4579 148.568 57.9531 148.047C60.8284 145.057 63.8167 142.213 68.108 141.325C74.1106 140.078 78.0457 142.717 79.01 148.653C79.2749 150.295 79.4143 151.954 79.4269 153.616C79.479 159.502 79.4269 165.387 79.4269 171.281C79.4269 176.799 77.429 179.361 72.0084 180.676C70.8357 180.967 70.9138 181.633 70.8878 182.504C70.8878 183.529 71.435 183.572 72.2169 183.572C80.174 183.572 88.1311 183.572 96.0882 183.572C96.9569 183.572 97.2436 183.299 97.3999 182.436C97.6953 180.916 96.6963 180.728 95.6626 180.429C89.8685 178.661 89.3646 178.037 89.3038 172.101C89.2256 165.105 89.4602 158.101 89.0866 151.122C88.9172 149.773 89.1566 148.405 89.7747 147.189C90.3929 145.974 91.3623 144.965 92.5614 144.289C94.6896 142.896 96.8005 141.53 99.3805 141.171C106.46 140.189 110.786 143.827 110.943 151.139C111.099 158.066 111.082 164.994 110.943 171.921C110.812 178.251 110.43 178.652 104.132 180.565C103.029 180.907 102.708 181.343 102.751 182.436C102.803 183.777 103.681 183.564 104.488 183.564H126.874C127.569 183.564 128.351 183.709 128.342 182.615C128.351 181.898 128.603 180.967 127.352 180.762Z" fill="black"/>
<path d="M20.174 176.449C19.1924 177.414 18.1847 178.789 16.6993 178.362C15.0227 177.892 15.0748 176.047 14.875 174.672C14.2585 169.718 14.1537 164.716 14.5623 159.741C14.8028 155.869 14.7302 151.985 14.3451 148.124C13.5981 140.736 10.1668 136.952 3.15653 135.918C-1.30958 135.236 -5.87125 135.474 -10.2386 136.619C-13.4681 137.354 -16.4729 138.835 -19.0036 140.941C-22.3654 143.888 -22.9734 148.799 -20.4195 151.985C-19.7281 152.827 -18.7925 153.441 -17.7372 153.746C-16.6818 154.051 -15.557 154.033 -14.5125 153.694C-13.5915 153.333 -12.8031 152.707 -12.2511 151.897C-11.6991 151.088 -11.4093 150.133 -11.42 149.158C-11.5578 148.06 -11.9566 147.01 -12.584 146.091C-13.6438 143.956 -13.2963 142.606 -11.2375 141.342C-8.95578 139.925 -6.26505 139.28 -3.57576 139.506C0.863205 139.839 3.37368 141.966 4.2858 146.254C4.946 149.192 4.69409 152.182 4.86783 155.154C4.96338 156.658 4.39004 157.204 2.98278 157.495C-1.28026 158.378 -5.49096 159.49 -9.63048 160.826C-13.553 161.96 -17.164 163.952 -20.1937 166.651C-21.6506 167.928 -22.7096 169.585 -23.2477 171.429C-23.7859 173.274 -23.7811 175.23 -23.234 177.072C-22.2698 180.873 -19.5682 183.052 -15.8763 184.051C-11.2685 185.275 -6.3574 184.693 -2.17718 182.428C0.427986 181.03 2.80558 179.257 4.87651 177.166C6.37065 183.103 9.78456 185.452 15.4484 184.478C19.4791 183.786 21.4597 180.668 23.5011 177.645C23.6748 177.38 23.5532 177.166 23.4142 176.902C22.5021 175.244 21.5031 175.108 20.174 176.449Z" fill="black"/>
<path d="M170.248 180.779C164.784 179.763 162.69 177.303 162.664 171.802C162.638 166.301 162.664 160.697 162.664 155.179C162.664 149.294 162.664 143.409 162.664 137.524C162.664 136.242 162.403 135.858 161.022 136.046C155.715 136.763 150.598 138.395 145.386 139.463C145.248 139.473 145.114 139.511 144.992 139.573C144.869 139.636 144.761 139.721 144.673 139.826C144.584 139.93 144.518 140.051 144.478 140.18C144.438 140.31 144.425 140.447 144.439 140.582C144.439 141.256 144.665 141.521 145.308 141.726C147.193 142.286 149.012 143.039 150.737 143.973C151.43 144.299 152.005 144.825 152.386 145.482C152.766 146.138 152.933 146.893 152.865 147.646C152.761 155.333 152.822 163.021 152.822 170.708C152.822 178.054 152.596 178.396 145.447 180.625C145.227 180.655 145.016 180.73 144.828 180.845C144.639 180.96 144.477 181.112 144.353 181.293C144.228 181.473 144.144 181.677 144.105 181.892C144.066 182.107 144.073 182.327 144.126 182.539C144.205 183.888 145.134 183.606 145.933 183.606C153.96 183.606 161.984 183.606 170.004 183.606C170.795 183.606 171.837 184.076 171.907 182.487C172.02 181.129 171.29 180.967 170.248 180.779Z" fill="black"/>
<path d="M213.482 180.77C207.922 179.728 205.898 177.396 205.838 171.853C205.777 166.309 205.838 160.637 205.838 155.025C205.838 149.208 205.838 143.392 205.838 137.575C205.838 136.387 205.672 135.866 204.222 136.037C198.914 136.772 193.798 138.386 188.586 139.505C188.308 139.539 188.055 139.675 187.876 139.886C187.697 140.097 187.606 140.367 187.621 140.641C187.552 141.35 187.925 141.572 188.542 141.777C190.423 142.347 192.242 143.1 193.971 144.024C194.632 144.332 195.183 144.83 195.55 145.452C195.918 146.074 196.085 146.791 196.03 147.509C195.943 156.238 196.03 164.959 195.987 173.689C195.987 176.952 194.91 178.49 191.843 179.668C190.882 180.09 189.877 180.408 188.846 180.616C187.526 180.821 187.343 181.471 187.395 182.649C187.456 184.093 188.49 183.632 189.211 183.632C197.232 183.632 205.253 183.632 213.273 183.632C213.994 183.632 215.011 184.084 215.063 182.624C215.219 181.36 214.689 180.967 213.482 180.77Z" fill="black"/>
<path d="M200.452 124.206C202.052 124.168 203.573 123.511 204.684 122.377C205.795 121.243 206.406 119.725 206.385 118.15C206.357 116.546 205.686 115.018 204.518 113.898C203.35 112.778 201.779 112.157 200.148 112.171C199.34 112.185 198.543 112.358 197.804 112.678C197.065 112.998 196.398 113.46 195.843 114.037C195.287 114.613 194.854 115.293 194.569 116.036C194.283 116.779 194.151 117.57 194.18 118.364C194.181 119.159 194.347 119.945 194.667 120.674C194.986 121.404 195.454 122.062 196.041 122.609C196.627 123.155 197.321 123.579 198.079 123.853C198.837 124.128 199.645 124.248 200.452 124.206Z" fill="black"/>
<path d="M157.018 124.208C157.823 124.225 158.624 124.083 159.373 123.789C160.122 123.495 160.802 123.056 161.375 122.498C161.947 121.94 162.399 121.275 162.704 120.541C163.009 119.808 163.161 119.021 163.151 118.229C163.157 117.433 163.003 116.645 162.696 115.909C162.389 115.173 161.936 114.505 161.364 113.943C160.791 113.381 160.11 112.938 159.361 112.638C158.611 112.339 157.809 112.189 157 112.198C155.392 112.214 153.855 112.849 152.718 113.967C151.581 115.085 150.935 116.596 150.919 118.177C150.913 118.968 151.065 119.753 151.369 120.485C151.673 121.218 152.121 121.884 152.688 122.445C153.255 123.005 153.93 123.45 154.673 123.753C155.416 124.055 156.213 124.21 157.018 124.208Z" fill="black"/>
<path d="M4.80702 167.113C4.83313 167.457 4.83313 167.802 4.80702 168.147C4.54642 170.026 5.67571 172.221 4.19895 173.741C1.87787 176.292 -1.23852 178.014 -4.66161 178.636C-8.67492 179.276 -11.3331 178.149 -12.584 175.441C-14.0694 172.187 -13.1313 168.907 -9.97795 166.413C-5.93858 163.192 -0.987082 161.971 3.78198 160.365C4.72016 160.04 4.84178 160.553 4.84178 161.296C4.78966 163.235 4.80702 165.174 4.80702 167.113Z" fill="#FBFEFF"/>
<path d="M137.325 211.956C137.28 212.151 137.186 212.332 137.05 212.482C136.915 212.631 136.744 212.744 136.552 212.81C136.161 212.725 135.978 212.529 136.178 212.127C136.482 211.452 136.916 211.794 137.325 211.956Z" fill="#3C3207"/>
<path d="M95.4975 277.181C94.0034 274.55 92.3702 274.26 88.7739 275.985C88.2614 276.182 87.801 276.276 87.8183 275.481C90.5026 273.03 94.1424 273.038 96.4009 275.481C95.9753 276.002 96.6007 277.045 95.4975 277.181Z" fill="#151202"/>
<path d="M73.0507 307.129L72.7033 306.274C72.3558 305.548 72.9725 304.925 72.9117 304.224C73.3287 303.225 72.9899 301.952 74.0671 301.201C74.5883 301.201 74.6838 301.602 74.8141 301.961C74.9444 302.32 74.5362 302.815 74.7186 303.302L74.3103 305.48C73.7544 305.899 73.7543 306.573 73.5632 307.188C73.4801 307.224 73.3888 307.237 73.2988 307.227C73.2087 307.216 73.1231 307.182 73.0507 307.129Z" fill="#CDAB18"/>
<path d="M81.4423 282.982C81.6964 282.15 82.1575 281.393 82.7839 280.78C83.4103 280.167 84.1823 279.717 85.0299 279.471L82.3544 283.417C82.1751 283.448 81.9906 283.422 81.827 283.344C81.6633 283.266 81.5288 283.139 81.4423 282.982Z" fill="#3B3107"/>
<path d="M81.8593 284.229C81.2954 285.886 80.4591 287.441 79.3835 288.833C79.2532 289.029 79.1316 289.029 79.0013 288.833C78.3498 288.124 78.9405 287.663 79.3488 287.124C79.757 286.586 80.2174 286.219 79.9481 285.527L80.8776 283.776C81.4423 283.468 81.6595 283.802 81.8593 284.229Z" fill="#4E4109"/>
<path d="M95.4976 277.181C96.3663 276.934 95.0111 275.473 96.3663 275.473C97.3913 276.379 97.4348 277.694 97.8517 278.847H97.7214H97.5998C96.3402 279.325 97.1394 277.48 96.1752 277.626L95.7756 278.104C95.6505 277.988 95.5589 277.842 95.5101 277.68C95.4612 277.518 95.4569 277.346 95.4976 277.181Z" fill="#5C7F87"/>
<path d="M74.6491 302.131L74.2321 301.132C74.132 301.016 74.0616 300.877 74.0269 300.729C73.9921 300.58 73.994 300.426 74.0323 300.278C74.1366 299.714 74.1279 299.082 74.7707 298.775C74.9271 298.561 75.0139 298.279 75.2919 298.168C75.4238 298.126 75.5652 298.122 75.6992 298.157C75.8333 298.192 75.9542 298.264 76.0477 298.365C75.8913 299.082 75.7436 299.8 75.5959 300.517C75.0487 300.961 75.1529 301.713 74.6491 302.131Z" fill="#D2AF18"/>
<path d="M77.9675 292.677C77.7068 294.253 77.1844 295.777 76.4213 297.187C75.1096 296.785 75.9956 295.939 76.013 295.265C76.1693 294.821 76.3257 294.411 76.4386 293.915C76.5265 293.551 76.7091 293.215 76.9685 292.941C77.2813 292.694 77.5853 292.463 77.9675 292.677Z" fill="#433808"/>
<path d="M77.9674 292.677L77.342 292.907C76.786 292.685 77.0901 292.138 76.8816 291.78C77.6113 291.242 77.5157 290.259 78.0543 289.619C78.188 289.638 78.3119 289.699 78.4074 289.792C78.5029 289.886 78.5649 290.008 78.5842 290.14C79.0359 291.156 78.0283 291.788 77.9674 292.677Z" fill="#937B11"/>
<path d="M74.2147 300.44C74.2147 300.671 74.2147 300.902 74.2147 301.132C73.8499 302.192 73.4937 303.259 73.1376 304.318C72.6945 304.148 72.9464 303.644 72.6685 303.404C73.0507 302.26 73.4416 301.107 73.8325 299.988C74.1105 300.022 74.1278 300.253 74.2147 300.44Z" fill="#413607"/>
<path d="M76.5081 295.051C76.6471 295.769 75.7002 296.452 76.4473 297.187L76.0129 298.391H75.2659C75.0829 298.279 74.9487 298.105 74.8893 297.901C74.8299 297.697 74.8495 297.479 74.9444 297.289C75.2658 296.529 75.1964 295.581 75.9087 295.008C76.0033 294.962 76.1089 294.942 76.2143 294.949C76.3197 294.957 76.4212 294.992 76.5081 295.051Z" fill="#CFAC18"/>
<path d="M87.8184 275.482C87.9219 275.638 88.0636 275.766 88.2306 275.854C88.3976 275.942 88.5844 275.987 88.7739 275.986L86.4198 277.694C86.4569 277.243 86.6031 276.806 86.8464 276.421C87.0897 276.037 87.4229 275.714 87.8184 275.482Z" fill="#2D2505"/>
<path d="M76.0738 295.111C75.7784 295.794 75.4744 296.478 75.2051 297.17C75.0835 297.306 74.9705 297.298 74.8837 297.17C74.6752 296.093 75.5004 295.299 75.6742 294.325C76.4212 294.248 76.2301 294.684 76.0738 295.111Z" fill="#221C03"/>
<path d="M73.0942 311.272C71.5479 311.093 72.3384 309.957 72.2255 309.196C72.4687 308.838 72.8597 309.752 73.0942 309.102C73.1639 309.075 73.241 309.071 73.3133 309.091C73.3856 309.111 73.4491 309.154 73.4938 309.213C73.6047 309.924 73.4636 310.651 73.0942 311.272Z" fill="#3F3407"/>
<path d="M76.9076 291.779C77.4028 292.018 77.1856 292.54 77.368 292.907C77.1943 293.214 77.0293 293.522 76.8642 293.829C76.8045 293.888 76.7334 293.935 76.6551 293.967C76.5769 293.999 76.4929 294.016 76.4081 294.016C76.3234 294.016 76.2394 293.999 76.1612 293.967C76.0829 293.935 76.0118 293.888 75.9521 293.829C75.9781 293.009 76.5602 292.446 76.9076 291.779Z" fill="#2D2505"/>
<path d="M72.6859 303.404C72.8423 303.703 72.9986 304.011 73.1463 304.318L72.7033 306.283C72.5673 306.291 72.4309 306.291 72.295 306.283L72.6859 303.404Z" fill="#100D01"/>
<path d="M74.6491 302.132C74.8923 301.568 74.6925 300.766 75.5612 300.543C75.2745 301.466 74.9965 302.388 74.6925 303.311C74.1539 302.944 74.7707 302.517 74.6491 302.132Z" fill="#1F1A03"/>
<path d="M73.4589 309.213C73.3493 309.2 73.2385 309.2 73.1288 309.213C72.5555 308.94 72.8682 308.359 72.6771 307.949C72.6261 307.786 72.6357 307.611 72.7041 307.454C72.7726 307.298 72.8954 307.17 73.0506 307.095C73.137 307.036 73.2414 307.009 73.346 307.018C73.8672 307.112 73.5718 307.667 73.8585 307.872C73.8958 308.111 73.8794 308.354 73.8104 308.586C73.7413 308.818 73.6213 309.032 73.4589 309.213Z" fill="#856F0F"/>
<path d="M73.8586 307.923C73.4677 307.76 73.4329 307.393 73.3461 307.069C73.6067 306.513 73.2332 305.574 74.3103 305.505C74.1626 306.3 74.015 307.111 73.8586 307.923Z" fill="#5C7F87"/>
<path d="M81.8592 284.229L80.8776 283.81C81.06 283.528 81.2511 283.255 81.4422 282.956C81.6198 282.943 81.7978 282.976 81.958 283.053C82.1183 283.129 82.255 283.246 82.3543 283.392L81.8592 284.229Z" fill="#211C03"/>
<path d="M78.6102 290.139L78.0803 289.618L79.0011 288.833H79.3833C79.4528 289.448 79.5831 290.114 78.6102 290.139Z" fill="#55470A"/>
<path d="M75.9522 293.821H76.8643C76.8122 294.248 76.9685 294.735 76.5081 295.043L76.0738 295.103C76.0738 294.752 76.0304 294.428 75.6481 294.248L75.9522 293.821Z" fill="#7E690F"/>
<path d="M74.8576 297.136C74.9028 297.099 74.9596 297.079 75.0183 297.079C75.0769 297.079 75.1338 297.099 75.179 297.136C75.179 297.546 75.2398 297.99 75.2658 298.366L74.7359 298.767C74.1974 298.195 73.9628 297.622 74.8576 297.136Z" fill="#A68B13"/>
<path d="M79.948 285.561C80.4779 286.364 80.1564 286.851 79.3486 287.158L79.948 285.561Z" fill="#221C03"/>
<path d="M97.1567 288.439L96.7223 287.184C96.5138 286.748 96.7223 286.688 97.1132 286.722L97.5215 287.15C97.5668 287.378 97.5575 287.613 97.4941 287.837C97.4308 288.061 97.3152 288.267 97.1567 288.439Z" fill="#443908"/>
<path d="M74.2148 300.44L73.85 299.961C73.9195 299.389 73.7718 298.654 74.7708 298.791C74.5884 299.338 74.4059 299.893 74.2148 300.44Z" fill="#2F2705"/>
<path d="M97.8951 215.279C95.4888 214.177 93.708 215.672 92.1009 217.158C89.8538 219.362 88.0111 221.931 86.6543 224.752C79.3574 238.803 75.0053 253.743 72.5469 269.28C72.2602 271.099 72.5469 273.184 71.3655 274.678C69.4891 276.985 67.3 279.052 65.2239 281.23C64.6245 280.666 64.7374 279.923 64.5637 279.282C63.5387 275.498 61.2019 274.055 57.3276 274.849C55.3342 275.283 53.4109 275.985 51.6117 276.933C50.5953 277.446 49.5616 277.933 48.3367 278.539C50.1007 271.361 53.331 264.61 57.8314 258.697C58.3179 258.031 59.0736 257.68 57.7185 256.578C55.9811 255.169 55.1906 256.023 54.2438 256.997C52.1009 259.396 50.4518 262.181 49.3878 265.197C46.1824 273.679 41.3612 281.307 36.6182 288.969C34.7158 292.035 32.6744 295.051 29.8251 297.399C27.2191 299.543 25.9334 299.219 25.0387 296.067C23.7655 291.668 23.3354 287.074 23.7704 282.52C24.4045 275.951 25.6815 269.519 26.915 263.062C27.4275 260.354 28.2267 257.672 28.0443 254.862C27.9487 253.358 27.7142 251.932 26.1245 251.214C24.5348 250.497 23.0928 251.137 21.9027 252.222C20.9406 253.046 20.0673 253.965 19.2967 254.964C18.3324 256.297 17.3769 256.365 15.9436 255.63C11.4264 253.307 7.18724 254.238 3.33029 257.151C-1.11736 260.508 -3.32382 265.265 -4.7224 270.442C-5.68054 273.499 -5.8977 276.734 -5.35653 279.889C-4.72239 282.836 -2.92422 283.69 -0.0315061 282.682C1.67939 282.013 3.14066 280.844 4.15554 279.334L10.4274 270.98C12.6686 267.999 14.9185 265.001 17.3161 261.849C18.0711 263.282 18.405 264.894 18.2803 266.504C18.2803 266.999 18.0023 267.768 18.7494 267.896C19.0702 267.92 19.3897 267.835 19.654 267.655C19.9182 267.474 20.1111 267.209 20.2001 266.905C20.7582 265.473 20.8223 263.901 20.3825 262.43C19.4009 258.244 20.1219 256.373 23.7964 253.888C24.0744 253.7 24.3003 253.341 24.7086 253.512C25.1168 253.683 25.03 254.093 24.9952 254.366C24.8649 255.673 24.7607 256.988 24.5435 258.278C23.0581 266.82 20.2001 275.199 19.8787 283.963C19.6876 288.627 19.9742 293.274 22.0243 297.579C23.8138 301.346 26.8368 302.226 30.5548 300.201C32.8638 298.852 34.835 297.01 36.3228 294.811C39.0939 291.053 41.257 286.927 43.6632 282.947C44.3408 281.828 44.7925 281.238 46.2693 281.777C46.9151 281.958 47.5923 282.006 48.2579 281.916C48.9234 281.827 49.5626 281.602 50.1349 281.256C53.0102 279.829 55.7379 278.061 58.9173 277.275C59.8468 277.045 60.9587 276.78 61.1585 277.993C61.6884 281.153 62.531 284.408 60.3506 287.389C56.5023 292.591 52.5846 297.75 49.744 303.618C47.9458 307.325 46.5299 311.152 46.7036 315.354C46.7905 317.652 47.8416 318.429 50.1262 317.994C51.2274 317.753 52.2545 317.258 53.1232 316.55C55.1195 314.889 56.7107 312.807 57.7793 310.46C61.0294 304.001 63.1134 297.035 63.9383 289.874C64.5203 285.185 67.9081 282.947 70.6792 280.017C70.7501 280.517 70.7325 281.026 70.6271 281.52C69.4196 289.114 68.3077 296.716 68.6465 304.446C68.7855 307.487 68.7595 310.545 69.6976 313.492C69.9148 314.167 70.1928 315.03 71.2265 314.782C72.0952 314.577 73.0073 314.346 72.9031 313.074C72.8889 312.452 72.9179 311.83 72.9899 311.211C72.5121 310.665 72.6946 309.999 72.6424 309.375C72.6705 308.94 72.7522 308.51 72.8857 308.094C72.9951 307.764 73.0793 307.428 73.1376 307.086C73.1469 306.907 73.1095 306.73 73.0289 306.57C72.9483 306.41 72.8272 306.273 72.6772 306.172C72.5992 306.131 72.5101 306.116 72.4227 306.128C72.3352 306.14 72.254 306.18 72.1907 306.24C72.1212 306.36 72.0691 306.488 71.9909 306.608C71.9517 306.622 71.9085 306.622 71.8693 306.608C71.5998 306.043 71.5148 305.41 71.6261 304.797C71.4176 298.399 72.3732 292.095 73.294 285.791C73.8933 281.708 73.9021 277.788 76.8121 273.833C85.4399 262.391 92.4015 249.822 97.4955 236.488C99.4066 231.406 100.97 226.238 100.97 220.763C100.918 218.44 100.18 216.33 97.8951 215.279ZM14.9619 260.405C10.7459 265.855 6.52414 271.302 2.29656 276.746C1.85131 277.36 1.34815 277.932 0.79374 278.454C0.090107 279.069 -0.587463 280.282 -1.52564 279.863C-2.29008 279.522 -1.83837 278.223 -1.95998 277.104C-1.57776 270.886 0.272529 264.958 4.85048 260.157C7.25673 257.595 10.2103 256.049 13.9195 257.159C16.0912 257.843 16.291 258.628 14.9619 260.405ZM60.4983 293.82C59.2406 299.776 57.1779 305.538 54.3654 310.955C53.6121 312.355 52.7404 313.689 51.7593 314.944C51.1252 315.798 50.2131 316.738 49.1533 316.396C47.9197 315.995 48.8666 314.688 48.6494 313.834C48.7624 313.373 48.8058 312.928 48.2846 312.646C48.0674 312.501 47.9545 312.322 48.1369 312.083C48.6408 310.443 48.3367 308.478 50.4042 307.496C51.1339 307.146 50.6561 306.001 51.0731 305.241C51.8462 303.831 53.3143 302.917 53.8442 301.371C53.8442 300.005 54.8779 299.262 55.7031 298.399C57.2841 296.135 58.8565 293.872 60.6112 291.343C60.8408 292.157 60.8013 293.022 60.4983 293.812V293.82ZM97.9472 221.557C97.8603 226.956 96.3401 232.021 94.3682 237.026C89.5644 249.25 82.6062 260.388 76.2735 272.048C75.9989 271.798 75.8036 271.476 75.7111 271.12C75.6187 270.764 75.633 270.389 75.7523 270.04C77.9675 258.312 80.6951 246.738 85.1167 235.634C87.2971 230.184 89.6773 224.778 93.2823 220.028C94.264 218.73 95.4106 216.782 97.174 217.415C98.8158 217.995 97.9472 220.122 97.9472 221.557Z" fill="black"/>
<path d="M55.6683 298.382C55.2084 299.462 54.5814 300.464 53.8094 301.355C53.0797 299.971 53.5401 299.228 55.6683 298.382Z" fill="#272004"/>
<path d="M70.8616 307.436C69.993 306.215 69.8974 305.352 70.4707 304.25C71.2525 305.249 70.9051 306.198 70.8616 307.436Z" fill="#3B3206"/>
<path d="M99.007 228.109C98.7804 227.236 98.8105 226.318 99.0939 225.461C99.2596 224.738 99.3699 224.004 99.424 223.266C99.7238 224.059 99.7723 224.922 99.5629 225.743C99.4326 226.4 99.2589 227.092 99.007 228.109Z" fill="#393006"/>
<path d="M61.6536 295.067C61.6536 293.863 62.3572 292.787 62.4007 291.574C62.4441 292.761 62.7047 293.957 62.0793 295.067C61.9316 295.255 61.7926 295.255 61.6536 295.067Z" fill="#1E1903"/>
<path d="M70.7487 296.964C70.992 298.194 71.0962 298.861 70.4794 299.433C70.3209 299.03 70.2626 298.596 70.3094 298.167C70.3563 297.737 70.5069 297.325 70.7487 296.964Z" fill="#191602"/>
<path d="M95.8015 238.385C95.7272 237.928 95.7581 237.461 95.892 237.017C96.0258 236.574 96.2591 236.165 96.5747 235.822C96.7571 236.779 96.3401 237.343 95.8015 238.385Z" fill="#342B06"/>
<path d="M71.0181 290.498C71.2393 290.948 71.338 291.447 71.3045 291.945C71.271 292.444 71.1065 292.925 70.827 293.342C70.9226 292.01 71.0181 291.25 71.0181 290.498Z" fill="#231E03"/>
<path d="M72.6772 307.983C73.2245 308.265 73.016 308.838 73.1289 309.248C73.0594 309.547 72.9986 310.102 72.9031 310.102C72.2863 310.102 72.6772 309.342 72.2168 309.179C72.3732 308.795 72.5208 308.393 72.6772 307.983Z" fill="#FDD41E"/>
<path d="M75.8566 262.455C75.9269 263.176 75.7626 263.899 75.3875 264.522C75.2178 264.176 75.1719 263.784 75.257 263.409C75.3421 263.033 75.5534 262.698 75.8566 262.455Z" fill="#3C3207"/>
<path d="M61.0803 299.698C60.7415 298.792 60.646 298.237 61.2454 297.571C61.4456 298.277 61.3872 299.03 61.0803 299.698Z" fill="#5C7F87"/>
<path d="M25.2124 264.318C25.2047 263.962 25.2788 263.609 25.4292 263.285C25.5797 262.961 25.8025 262.675 26.0811 262.447C26.2635 263.31 25.89 263.771 25.2124 264.318Z" fill="#5C7F87"/>
<path d="M48.1022 312.066L48.4757 312.502C48.8753 312.937 48.4323 313.159 48.2238 313.441L48.0848 314.569C47.9632 314.748 47.8242 314.765 47.6765 314.611C47.7721 313.757 47.5636 312.843 48.1022 312.066Z" fill="#CEAC18"/>
<path d="M71.9909 284.391C71.8972 284.267 71.8324 284.124 71.8013 283.973C71.7701 283.821 71.7734 283.665 71.8107 283.515C71.848 283.365 71.9185 283.225 72.0172 283.104C72.116 282.984 72.2405 282.887 72.3818 282.819C72.8683 283.469 72.3992 283.913 71.9909 284.391Z" fill="#5C7F87"/>
<path d="M72.8682 279.402C72.6914 279.146 72.605 278.84 72.6222 278.532C72.6395 278.223 72.7595 277.928 72.9638 277.693C73.3721 278.343 72.9898 278.804 72.8682 279.402Z" fill="#5C7F87"/>
<path d="M83.9788 234.472C84.2915 233.532 84.4478 233.08 84.6563 232.456C85.0125 233.199 84.9169 233.669 83.9788 234.472Z" fill="#2E2705"/>
<path d="M99.6845 219.328C99.8684 219.579 99.9887 219.869 100.035 220.175C100.082 220.481 100.054 220.794 99.9538 221.087C99.7489 220.847 99.6153 220.555 99.5678 220.245C99.5203 219.934 99.5607 219.617 99.6845 219.328Z" fill="#201B03"/>
<path d="M47.6764 314.611L48.0847 314.568C48.0847 315.089 48.3453 315.628 47.8762 316.14C47.753 316.059 47.649 315.952 47.571 315.828C47.493 315.704 47.4429 315.565 47.424 315.42C47.4051 315.275 47.4178 315.128 47.4613 314.989C47.5049 314.849 47.5782 314.721 47.6764 314.611Z" fill="#6F5D0D"/>
<path d="M61.6536 295.068H62.0792C62.1292 295.394 62.0941 295.728 61.9771 296.037C61.8601 296.346 61.6651 296.621 61.4104 296.836C61.0542 296.153 61.7405 295.666 61.6536 295.068Z" fill="#2B2405"/>
<path d="M72.434 281.615C72.1907 280.991 72.0865 280.487 72.4861 280.325C72.8857 280.162 72.7641 280.564 72.7119 280.786C72.6598 281.008 72.5903 281.153 72.434 281.615Z" fill="#5C7F87"/>
<path d="M26.776 256.749C27.0453 257.603 27.1061 257.953 26.776 258.218C26.7325 258.218 26.4633 258.141 26.4633 258.124C26.5241 257.842 26.6022 257.484 26.776 256.749Z" fill="#79650E"/>
<path d="M62.7221 290.746C62.6178 290.438 62.4788 290.25 62.5223 290.131C62.5997 289.893 62.7597 289.691 62.974 289.558C63.1911 289.481 63.2346 289.755 63.1564 289.934C63.0782 290.113 62.9219 290.378 62.7221 290.746Z" fill="#534509"/>
<path d="M48.2238 313.442C48.3106 313.126 48.3888 312.809 48.4757 312.502C49.6484 312.827 48.7102 313.356 48.6146 313.817L48.2238 313.442Z" fill="#5F4F0B"/>
<path d="M55.5729 297.391C55.4773 297.152 55.3383 296.973 55.3731 296.853C55.4078 296.734 55.6076 296.605 55.7379 296.486C55.8335 296.623 56.0159 296.776 55.9899 296.887C55.9638 296.998 55.7727 297.135 55.5729 297.391Z" fill="#382F06"/>
<path d="M144.778 272.791C143.275 272.142 143.44 273.261 143.214 273.714C139.783 280.547 136.465 287.381 133.033 294.214C129.602 301.047 126.77 308.436 122.105 314.714C121.237 315.833 120.628 317.917 119.291 317.661C117.805 317.371 117.71 315.244 117.388 313.783C114.895 302.329 114.504 290.72 115.138 279.095C115.106 277.568 115.402 276.051 116.007 274.645C117.744 271.228 119.482 267.863 121.219 264.472C128.447 250.25 135.327 235.891 140.417 220.772C141.286 218.133 142.154 215.485 141.929 212.666C141.798 211.094 141.268 209.642 139.618 209.01C137.967 208.378 136.89 209.317 135.9 210.351C134.971 211.293 134.128 212.313 133.381 213.4C130.611 217.485 128.246 221.821 126.318 226.35C120.199 240.624 115.958 255.608 113.696 270.938C113.682 271.27 113.569 271.591 113.371 271.861C113.174 272.131 112.9 272.339 112.584 272.458C108.216 274.529 104.022 276.937 100.041 279.659C98.7203 280.513 98.147 280.385 97.9038 278.873C97.8633 278.845 97.8177 278.826 97.7696 278.816C97.7214 278.805 97.6717 278.805 97.6233 278.813C97.5748 278.822 97.5286 278.84 97.4873 278.866C97.446 278.893 97.4104 278.927 97.3826 278.967C97.1629 279.492 97.1143 280.071 97.2436 280.624C97.122 279.505 97.287 278.326 96.2359 277.498C95.8797 277.549 95.6452 277.686 95.8276 278.104C96.2268 279.394 96.1584 280.781 95.6341 282.027C95.1097 283.273 94.1619 284.302 92.9523 284.938C91.3558 286.07 89.838 287.305 88.4091 288.636C85.1824 291.21 82.3503 294.228 80.0002 297.596C78.6103 299.681 77.3942 301.867 77.316 304.43C77.2726 306.446 78.3237 307.522 80.3564 307.556C81.9081 307.559 83.4442 307.251 84.8707 306.65C86.2971 306.05 87.5839 305.169 88.6523 304.063C93.2129 299.792 95.6452 294.308 97.1741 288.397C97.5215 287.953 97.2783 287.543 97.0351 287.201C96.9602 287.105 96.9068 286.994 96.8787 286.877C96.9107 286.906 96.9456 286.931 96.983 286.953C97.0074 287.001 97.0416 287.043 97.0835 287.077C97.1254 287.111 97.1741 287.136 97.2264 287.151C97.2788 287.165 97.3336 287.169 97.3874 287.161C97.4412 287.154 97.4928 287.135 97.5389 287.107C97.9559 286.099 97.6171 284.767 98.5987 284.041C103.112 280.657 107.964 277.735 113.08 275.32C111.896 286.325 111.943 297.424 113.219 308.419C113.492 311.739 114.375 314.983 115.825 317.994C117.336 320.83 119.577 321.172 121.975 318.985C123.094 317.833 124.065 316.551 124.868 315.167C128.117 310.375 130.427 305.105 132.972 299.945C137.119 291.557 141.222 283.152 145.282 274.73C145.534 274.184 146.359 273.475 144.778 272.791ZM117.388 264.249C120.863 248.678 124.755 233.234 132.608 219.089C133.806 216.911 135.214 214.861 136.551 212.743C136.551 212.256 136.934 212.076 137.325 211.889C137.881 211.684 138.193 210.778 138.914 211.188C139.444 211.496 139.114 212.196 139.079 212.726C138.841 215.2 138.28 217.635 137.411 219.969C132.408 234.866 125.589 249.011 118.622 263.071C118.309 263.686 118.04 264.318 117.753 264.95C116.954 265.095 117.267 264.677 117.388 264.284V264.249ZM94.568 288.371C92.7387 294.439 89.109 299.831 84.1438 303.858C83.1448 304.712 81.6768 305.848 80.6691 305.019C79.8699 304.362 80.8168 302.704 81.3901 301.603C84.4739 295.709 89.2604 291.352 94.6202 286.988C94.6485 287.461 94.6311 287.936 94.568 288.406V288.371Z" fill="black"/>
<path d="M113.731 290.045V285.663C114.287 287.124 114.695 288.593 113.731 290.045Z" fill="#3C3307"/>
<path d="M96.2098 277.634C96.228 277.437 96.2871 277.245 96.3836 277.071C96.6529 276.78 96.6876 277.148 96.7919 277.267C97.2001 277.728 97.0438 278.48 97.6605 278.856C97.6171 279.59 97.5823 280.325 97.5302 281.418C96.5573 280.052 96.5486 278.796 96.2098 277.634Z" fill="#CBAA18"/>
<path d="M114.357 300.876C113.358 299.347 113.896 298.031 113.618 296.605C114.678 297.92 114.452 299.21 114.357 300.876Z" fill="#74610E"/>
<path d="M113.688 293.487V291.241C114.183 292.548 114.852 293.316 114.105 294.273C113.714 294.136 113.94 293.718 113.688 293.487Z" fill="#514409"/>
<path d="M96.5225 287.842C96.4357 288.781 96.3922 289.396 95.6538 289.969C95.6352 289.574 95.7031 289.179 95.853 288.812C96.0028 288.445 96.2312 288.114 96.5225 287.842Z" fill="#6A590C"/>
<path d="M131.669 240.409C131.869 241.306 131.374 241.648 131.018 242.066C130.97 241.758 131.005 241.443 131.119 241.152C131.233 240.862 131.423 240.605 131.669 240.409Z" fill="#362D06"/>
<path d="M140.461 214.178C141.329 214.827 140.738 215.271 140.53 216.108C140.355 215.818 140.257 215.489 140.245 215.152C140.233 214.814 140.307 214.48 140.461 214.178Z" fill="#5C7F87"/>
<path d="M135.735 229.817C135.883 230.098 135.93 230.421 135.866 230.731C135.803 231.042 135.634 231.322 135.387 231.525C134.936 230.927 135.301 230.509 135.735 229.817Z" fill="#5C7F87"/>
<path d="M119.847 249.301C119.482 248.447 120.116 248.114 120.177 247.593C120.333 248.157 120.611 248.746 119.847 249.301Z" fill="#372E06"/>
<path d="M97.0785 286.722L96.6876 287.184C95.8189 286.543 96.3314 286.065 96.8179 285.535C97.2957 285.911 97.0785 286.338 97.0785 286.722Z" fill="#B59715"/>
<path d="M117.388 264.283L117.744 265.018L117.284 266.205C117.065 265.925 116.955 265.578 116.974 265.225C116.993 264.873 117.14 264.538 117.388 264.283Z" fill="#6D5B0C"/>
<path d="M124.442 234.499C124.605 234.809 124.646 235.168 124.558 235.506C124.47 235.845 124.259 236.14 123.964 236.335C123.677 235.635 124.112 235.096 124.442 234.499Z" fill="#C4A317"/>
<path d="M113.688 293.487L114.105 294.273C114.105 294.658 114.035 295.05 113.983 295.683C113.629 295.006 113.525 294.231 113.688 293.487Z" fill="#BE9E16"/>
<path d="M115.321 308.239C115.234 308.35 115.104 308.624 115.017 308.607C114.845 308.574 114.694 308.475 114.596 308.333C114.499 308.19 114.462 308.015 114.496 307.846C114.525 307.676 114.61 307.52 114.739 307.402C115.104 307.471 115.217 307.804 115.321 308.239Z" fill="#725F0D"/>
<path d="M140.747 281.554C140.843 280.777 141.26 280.589 141.72 280.281C141.816 281.067 141.433 281.34 140.747 281.554Z" fill="#322A05"/>
<path d="M116.441 263.668C116.575 263.889 116.618 264.152 116.562 264.403C116.505 264.653 116.353 264.874 116.137 265.018C116.037 264.79 116.012 264.537 116.067 264.295C116.122 264.052 116.253 263.833 116.441 263.668Z" fill="#998011"/>
<path d="M114.608 305.762C113.801 305.437 114.192 304.908 113.905 304.165C114.157 304.344 114.355 304.587 114.479 304.868C114.603 305.149 114.648 305.458 114.608 305.762Z" fill="#7F6A0F"/>
<path d="M115.964 313.116C115.642 312.74 115.303 312.407 115.503 311.834C116.19 312.099 116.285 312.509 115.964 313.116Z" fill="#69570C"/>
</g>
</svg>
