<svg width="48" height="48" viewBox="0 0 48 48" fill="none" xmlns="http://www.w3.org/2000/svg">
<path d="M16.3512 23.0688C17.448 22.1568 18.5544 22.1568 19.6776 23.0952L19.9368 23.3304L31.9032 35.2968L32.1288 35.496C32.5906 35.854 33.1671 36.0311 33.7502 35.9944C34.3334 35.9576 34.883 35.7093 35.2962 35.2962C35.7093 34.883 35.9576 34.3334 35.9944 33.7502C36.0311 33.1671 35.854 32.5906 35.496 32.1288L35.2968 31.9032L32.196 28.8L32.8968 28.0968L33.1512 27.8688C34.248 26.9568 35.3544 26.9568 36.4776 27.8952L36.7368 28.1304L47.9544 39.3504C47.7272 41.6359 46.6881 43.7641 45.0258 45.3489C43.3635 46.9337 41.1881 47.8701 38.8944 47.988L38.4 48H9.6C7.21898 47.9999 4.92298 47.1149 3.15782 45.5169C1.39266 43.919 0.284316 41.7221 0.048 39.3528L16.0968 23.2968L16.3512 23.0688ZM38.4 0C40.863 -1.92661e-06 43.2317 0.946644 45.0163 2.64414C46.8009 4.34163 47.8649 6.6601 47.988 9.12L48 9.6V32.604L40.0968 24.7032L39.7368 24.3744C36.7224 21.7464 32.8968 21.7416 29.9064 24.3336L29.5368 24.6696L28.8 25.404L23.2968 19.9032L22.9368 19.5744C19.9224 16.9464 16.0968 16.9416 13.1064 19.5336L12.7368 19.8696L0 32.604V9.6C-1.92661e-06 7.13702 0.946644 4.76825 2.64414 2.98365C4.34163 1.19905 6.6601 0.135149 9.12 0.0120003L9.6 0H38.4ZM31.224 12L30.9192 12.0168C30.3359 12.0862 29.7983 12.3671 29.4082 12.8063C29.0181 13.2455 28.8027 13.8126 28.8027 14.4C28.8027 14.9874 29.0181 15.5545 29.4082 15.9937C29.7983 16.4329 30.3359 16.7138 30.9192 16.7832L31.2 16.8L31.5048 16.7832C32.0881 16.7138 32.6257 16.4329 33.0158 15.9937C33.4059 15.5545 33.6213 14.9874 33.6213 14.4C33.6213 13.8126 33.4059 13.2455 33.0158 12.8063C32.6257 12.3671 32.0881 12.0862 31.5048 12.0168L31.224 12Z" fill="#96BCC5"/>
</svg>
