<svg width="23" height="27" viewBox="0 0 23 27" fill="none" xmlns="http://www.w3.org/2000/svg">
<path d="M7.5625 11.5C7.5625 12.5443 7.97734 13.5458 8.71577 14.2842C9.45419 15.0227 10.4557 15.4375 11.5 15.4375C12.5443 15.4375 13.5458 15.0227 14.2842 14.2842C15.0227 13.5458 15.4375 12.5443 15.4375 11.5C15.4375 10.4557 15.0227 9.45419 14.2842 8.71577C13.5458 7.97734 12.5443 7.5625 11.5 7.5625C10.4557 7.5625 9.45419 7.97734 8.71577 8.71577C7.97734 9.45419 7.5625 10.4557 7.5625 11.5Z" stroke="#F0FAFC" stroke-width="1.5" stroke-linecap="round" stroke-linejoin="round"/>
<path d="M18.9248 18.9244L13.3559 24.4934C12.8637 24.9851 12.1964 25.2613 11.5007 25.2613C10.8049 25.2613 10.1376 24.9851 9.64544 24.4934L4.07519 18.9244C2.60679 17.4559 1.60682 15.585 1.20172 13.5482C0.796619 11.5115 1.00459 9.40029 1.79932 7.4817C2.59406 5.5631 3.93987 3.92326 5.66657 2.76953C7.39328 1.6158 9.42332 1 11.5 1C13.5767 1 15.6067 1.6158 17.3334 2.76953C19.0601 3.92326 20.4059 5.5631 21.2007 7.4817C21.9954 9.40029 22.2034 11.5115 21.7983 13.5482C21.3932 15.585 20.3932 17.4559 18.9248 18.9244Z" stroke="#F0FAFC" stroke-width="1.5" stroke-linecap="round" stroke-linejoin="round"/>
</svg>
