<svg width="40" height="40" viewBox="0 0 40 40" fill="none" xmlns="http://www.w3.org/2000/svg">
<path fill-rule="evenodd" clip-rule="evenodd" d="M20 40C31.0457 40 40 31.0457 40 20C40 8.9543 31.0457 0 20 0C8.9543 0 0 8.9543 0 20C0 31.0457 8.9543 40 20 40Z" fill="#3B4857"/>
<path fill-rule="evenodd" clip-rule="evenodd" d="M11 30.414V11H29V25H16.414L11 30.414ZM15.586 23H27V13H13V25.586L15.586 23ZM16 15H24V17H16V15ZM22 19H16V21H22V19Z" fill="#202C38"/>
</svg>
